^C:\USERS\MATEUSZ\DOCUMENTS\BITBUCKET\GAMEENGINE V2.0\CORE\CAMERA.CPP|C:\USERS\MATEUSZ\DOCUMENTS\BITBUCKET\GAMEENGINE V2.0\CORE\EMISSIONPOINT.CPP|C:\USERS\MATEUSZ\DOCUMENTS\BITBUCKET\GAMEENGINE V2.0\CORE\EMISSIONSOLID.CPP|C:\USERS\MATEUSZ\DOCUMENTS\BITBUCKET\GAMEENGINE V2.0\CORE\ENGINE.CPP|C:\USERS\MATEUSZ\DOCUMENTS\BITBUCKET\GAMEENGINE V2.0\CORE\FONT.CPP|C:\USERS\MATEUSZ\DOCUMENTS\BITBUCKET\GAMEENGINE V2.0\CORE\FONTCONTAINER.CPP|C:\USERS\MATEUSZ\DOCUMENTS\BITBUCKET\GAMEENGINE V2.0\CORE\GAMEOBJECT.CPP|C:\USERS\MATEUSZ\DOCUMENTS\BITBUCKET\GAMEENGINE V2.0\CORE\GLOBALTIME.CPP|C:\USERS\MATEUSZ\DOCUMENTS\BITBUCKET\GAMEENGINE V2.0\CORE\OBJECT.CPP|C:\USERS\MATEUSZ\DOCUMENTS\BITBUCKET\GAMEENGINE V2.0\CORE\ORTHOGRAPHICCAMERA.CPP|C:\USERS\MATEUSZ\DOCUMENTS\BITBUCKET\GAMEENGINE V2.0\CORE\PARTICLESYSTEM.CPP|C:\USERS\MATEUSZ\DOCUMENTS\BITBUCKET\GAMEENGINE V2.0\CORE\PERSPECTIVECAMERA.CPP|C:\USERS\MATEUSZ\DOCUMENTS\BITBUCKET\GAMEENGINE V2.0\CORE\RESOURCES.CPP|C:\USERS\MATEUSZ\DOCUMENTS\BITBUCKET\GAMEENGINE V2.0\CORE\SCENE.CPP|C:\USERS\MATEUSZ\DOCUMENTS\BITBUCKET\GAMEENGINE V2.0\CORE\STEREOSCOPICCAMERA.CPP|C:\USERS\MATEUSZ\DOCUMENTS\BITBUCKET\GAMEENGINE V2.0\CORE\TEXT.CPP
C:\USERS\MATEUSZ\DOCUMENTS\BITBUCKET\GAMEENGINE V2.0\CORE\X64\DEBUG\CORE.PDB
C:\USERS\MATEUSZ\DOCUMENTS\BITBUCKET\GAMEENGINE V2.0\CORE\X64\DEBUG\CORE.IDB
C:\USERS\MATEUSZ\DOCUMENTS\BITBUCKET\GAMEENGINE V2.0\CORE\X64\DEBUG\CAMERA.OBJ
C:\USERS\MATEUSZ\DOCUMENTS\BITBUCKET\GAMEENGINE V2.0\CORE\X64\DEBUG\EMISSIONPOINT.OBJ
C:\USERS\MATEUSZ\DOCUMENTS\BITBUCKET\GAMEENGINE V2.0\CORE\X64\DEBUG\EMISSIONSOLID.OBJ
C:\USERS\MATEUSZ\DOCUMENTS\BITBUCKET\GAMEENGINE V2.0\CORE\X64\DEBUG\ENGINE.OBJ
C:\USERS\MATEUSZ\DOCUMENTS\BITBUCKET\GAMEENGINE V2.0\CORE\X64\DEBUG\FONT.OBJ
C:\USERS\MATEUSZ\DOCUMENTS\BITBUCKET\GAMEENGINE V2.0\CORE\X64\DEBUG\FONTCONTAINER.OBJ
C:\USERS\MATEUSZ\DOCUMENTS\BITBUCKET\GAMEENGINE V2.0\CORE\X64\DEBUG\GAMEOBJECT.OBJ
C:\USERS\MATEUSZ\DOCUMENTS\BITBUCKET\GAMEENGINE V2.0\CORE\X64\DEBUG\GLOBALTIME.OBJ
C:\USERS\MATEUSZ\DOCUMENTS\BITBUCKET\GAMEENGINE V2.0\CORE\X64\DEBUG\OBJECT.OBJ
C:\USERS\MATEUSZ\DOCUMENTS\BITBUCKET\GAMEENGINE V2.0\CORE\X64\DEBUG\ORTHOGRAPHICCAMERA.OBJ
C:\USERS\MATEUSZ\DOCUMENTS\BITBUCKET\GAMEENGINE V2.0\CORE\X64\DEBUG\PARTICLESYSTEM.OBJ
C:\USERS\MATEUSZ\DOCUMENTS\BITBUCKET\GAMEENGINE V2.0\CORE\X64\DEBUG\PERSPECTIVECAMERA.OBJ
C:\USERS\MATEUSZ\DOCUMENTS\BITBUCKET\GAMEENGINE V2.0\CORE\X64\DEBUG\RESOURCES.OBJ
C:\USERS\MATEUSZ\DOCUMENTS\BITBUCKET\GAMEENGINE V2.0\CORE\X64\DEBUG\SCENE.OBJ
C:\USERS\MATEUSZ\DOCUMENTS\BITBUCKET\GAMEENGINE V2.0\CORE\X64\DEBUG\STEREOSCOPICCAMERA.OBJ
C:\USERS\MATEUSZ\DOCUMENTS\BITBUCKET\GAMEENGINE V2.0\CORE\X64\DEBUG\TEXT.OBJ
^C:\USERS\MATEUSZ\DOCUMENTS\BITBUCKET\GAMEENGINE V2.0\CORE\CAMERA.CPP
C:\USERS\MATEUSZ\DOCUMENTS\BITBUCKET\GAMEENGINE V2.0\CORE\X64\DEBUG\CORE.PDB
^C:\USERS\MATEUSZ\DOCUMENTS\BITBUCKET\GAMEENGINE V2.0\CORE\EMISSIONPOINT.CPP
C:\USERS\MATEUSZ\DOCUMENTS\BITBUCKET\GAMEENGINE V2.0\CORE\X64\DEBUG\CORE.PDB
^C:\USERS\MATEUSZ\DOCUMENTS\BITBUCKET\GAMEENGINE V2.0\CORE\EMISSIONSOLID.CPP
C:\USERS\MATEUSZ\DOCUMENTS\BITBUCKET\GAMEENGINE V2.0\CORE\X64\DEBUG\CORE.PDB
^C:\USERS\MATEUSZ\DOCUMENTS\BITBUCKET\GAMEENGINE V2.0\CORE\ENGINE.CPP
C:\USERS\MATEUSZ\DOCUMENTS\BITBUCKET\GAMEENGINE V2.0\CORE\X64\DEBUG\CORE.PDB
^C:\USERS\MATEUSZ\DOCUMENTS\BITBUCKET\GAMEENGINE V2.0\CORE\FONT.CPP
C:\USERS\MATEUSZ\DOCUMENTS\BITBUCKET\GAMEENGINE V2.0\CORE\X64\DEBUG\CORE.PDB
^C:\USERS\MATEUSZ\DOCUMENTS\BITBUCKET\GAMEENGINE V2.0\CORE\FONTCONTAINER.CPP
C:\USERS\MATEUSZ\DOCUMENTS\BITBUCKET\GAMEENGINE V2.0\CORE\X64\DEBUG\CORE.PDB
^C:\USERS\MATEUSZ\DOCUMENTS\BITBUCKET\GAMEENGINE V2.0\CORE\GAMEOBJECT.CPP
C:\USERS\MATEUSZ\DOCUMENTS\BITBUCKET\GAMEENGINE V2.0\CORE\X64\DEBUG\CORE.PDB
^C:\USERS\MATEUSZ\DOCUMENTS\BITBUCKET\GAMEENGINE V2.0\CORE\GLOBALTIME.CPP
C:\USERS\MATEUSZ\DOCUMENTS\BITBUCKET\GAMEENGINE V2.0\CORE\X64\DEBUG\CORE.PDB
^C:\USERS\MATEUSZ\DOCUMENTS\BITBUCKET\GAMEENGINE V2.0\CORE\OBJECT.CPP
C:\USERS\MATEUSZ\DOCUMENTS\BITBUCKET\GAMEENGINE V2.0\CORE\X64\DEBUG\CORE.PDB
^C:\USERS\MATEUSZ\DOCUMENTS\BITBUCKET\GAMEENGINE V2.0\CORE\ORTHOGRAPHICCAMERA.CPP
C:\USERS\MATEUSZ\DOCUMENTS\BITBUCKET\GAMEENGINE V2.0\CORE\X64\DEBUG\CORE.PDB
^C:\USERS\MATEUSZ\DOCUMENTS\BITBUCKET\GAMEENGINE V2.0\CORE\PARTICLESYSTEM.CPP
C:\USERS\MATEUSZ\DOCUMENTS\BITBUCKET\GAMEENGINE V2.0\CORE\X64\DEBUG\CORE.PDB
^C:\USERS\MATEUSZ\DOCUMENTS\BITBUCKET\GAMEENGINE V2.0\CORE\PERSPECTIVECAMERA.CPP
C:\USERS\MATEUSZ\DOCUMENTS\BITBUCKET\GAMEENGINE V2.0\CORE\X64\DEBUG\CORE.PDB
^C:\USERS\MATEUSZ\DOCUMENTS\BITBUCKET\GAMEENGINE V2.0\CORE\RESOURCES.CPP
C:\USERS\MATEUSZ\DOCUMENTS\BITBUCKET\GAMEENGINE V2.0\CORE\X64\DEBUG\CORE.PDB
^C:\USERS\MATEUSZ\DOCUMENTS\BITBUCKET\GAMEENGINE V2.0\CORE\SCENE.CPP
C:\USERS\MATEUSZ\DOCUMENTS\BITBUCKET\GAMEENGINE V2.0\CORE\X64\DEBUG\CORE.PDB
^C:\USERS\MATEUSZ\DOCUMENTS\BITBUCKET\GAMEENGINE V2.0\CORE\STEREOSCOPICCAMERA.CPP
C:\USERS\MATEUSZ\DOCUMENTS\BITBUCKET\GAMEENGINE V2.0\CORE\X64\DEBUG\CORE.PDB
^C:\USERS\MATEUSZ\DOCUMENTS\BITBUCKET\GAMEENGINE V2.0\CORE\TEXT.CPP
C:\USERS\MATEUSZ\DOCUMENTS\BITBUCKET\GAMEENGINE V2.0\CORE\X64\DEBUG\CORE.PDB
