^C:\USERS\MATEUSZ\DOCUMENTS\BITBUCKET\GAMEENGINE V2.0\RENDEROBJECTS\X64\DEBUG\RENDERMODEL.OBJ|C:\USERS\MATEUSZ\DOCUMENTS\BITBUCKET\GAMEENGINE V2.0\RENDEROBJECTS\X64\DEBUG\RENDEROBJECT.OBJ|C:\USERS\MATEUSZ\DOCUMENTS\BITBUCKET\GAMEENGINE V2.0\RENDEROBJECTS\X64\DEBUG\RENDERPARTICLES.OBJ|C:\USERS\MATEUSZ\DOCUMENTS\BITBUCKET\GAMEENGINE V2.0\RENDEROBJECTS\X64\DEBUG\RENDERTEXT.OBJ
C:\WINDOWS\GLOBALIZATION\SORTING\SORTDEFAULT.NLS
C:\USERS\MATEUSZ\DOCUMENTS\BITBUCKET\GAMEENGINE V2.0\RENDEROBJECTS\X64\DEBUG\RENDERMODEL.OBJ
C:\WINDOWS\SYSTEM32\TZRES.DLL
C:\USERS\MATEUSZ\DOCUMENTS\BITBUCKET\GAMEENGINE V2.0\RENDEROBJECTS\X64\DEBUG\RENDEROBJECT.OBJ
C:\USERS\MATEUSZ\DOCUMENTS\BITBUCKET\GAMEENGINE V2.0\RENDEROBJECTS\X64\DEBUG\RENDERPARTICLES.OBJ
C:\USERS\MATEUSZ\DOCUMENTS\BITBUCKET\GAMEENGINE V2.0\RENDEROBJECTS\X64\DEBUG\RENDERTEXT.OBJ
