^C:\USERS\MATEUSZ\DOCUMENTS\BITBUCKET\GAMEENGINE V2.0\USEFULELEMENTS\USEFULFUNCTIONS.CPP
C:\WINDOWS\GLOBALIZATION\SORTING\SORTDEFAULT.NLS
C:\PROGRAM FILES (X86)\MICROSOFT VISUAL STUDIO 14.0\VC\BIN\X86_AMD64\1033\CLUI.DLL
C:\WINDOWS\SYSTEM32\TZRES.DLL
C:\USERS\MATEUSZ\DOCUMENTS\BITBUCKET\GAMEENGINE V2.0\USEFULELEMENTS\USEFULFUNCTIONS.H
C:\USERS\MATEUSZ\DOCUMENTS\BITBUCKET\GAMEENGINE V2.0\USEFULELEMENTS\HEADER.H
C:\PROGRAM FILES (X86)\MICROSOFT VISUAL STUDIO 14.0\VC\INCLUDE\STRING
C:\PROGRAM FILES (X86)\MICROSOFT VISUAL STUDIO 14.0\VC\INCLUDE\ISTREAM
C:\PROGRAM FILES (X86)\MICROSOFT VISUAL STUDIO 14.0\VC\INCLUDE\OSTREAM
C:\PROGRAM FILES (X86)\MICROSOFT VISUAL STUDIO 14.0\VC\INCLUDE\IOS
C:\PROGRAM FILES (X86)\MICROSOFT VISUAL STUDIO 14.0\VC\INCLUDE\XLOCNUM
C:\PROGRAM FILES (X86)\MICROSOFT VISUAL STUDIO 14.0\VC\INCLUDE\CLIMITS
C:\PROGRAM FILES (X86)\MICROSOFT VISUAL STUDIO 14.0\VC\INCLUDE\YVALS.H
C:\PROGRAM FILES (X86)\MICROSOFT VISUAL STUDIO 14.0\VC\INCLUDE\XKEYCHECK.H
C:\PROGRAM FILES (X86)\MICROSOFT VISUAL STUDIO 14.0\VC\INCLUDE\CRTDEFS.H
C:\PROGRAM FILES (X86)\MICROSOFT VISUAL STUDIO 14.0\VC\INCLUDE\VCRUNTIME.H
C:\PROGRAM FILES (X86)\MICROSOFT VISUAL STUDIO 14.0\VC\INCLUDE\SAL.H
C:\PROGRAM FILES (X86)\MICROSOFT VISUAL STUDIO 14.0\VC\INCLUDE\CONCURRENCYSAL.H
C:\PROGRAM FILES (X86)\MICROSOFT VISUAL STUDIO 14.0\VC\INCLUDE\VADEFS.H
C:\PROGRAM FILES (X86)\WINDOWS KITS\10\INCLUDE\10.0.10240.0\UCRT\CORECRT.H
C:\PROGRAM FILES (X86)\MICROSOFT VISUAL STUDIO 14.0\VC\INCLUDE\USE_ANSI.H
C:\PROGRAM FILES (X86)\MICROSOFT VISUAL STUDIO 14.0\VC\INCLUDE\LIMITS.H
C:\PROGRAM FILES (X86)\MICROSOFT VISUAL STUDIO 14.0\VC\INCLUDE\CMATH
C:\PROGRAM FILES (X86)\WINDOWS KITS\10\INCLUDE\10.0.10240.0\UCRT\MATH.H
C:\PROGRAM FILES (X86)\MICROSOFT VISUAL STUDIO 14.0\VC\INCLUDE\XTGMATH.H
C:\PROGRAM FILES (X86)\MICROSOFT VISUAL STUDIO 14.0\VC\INCLUDE\XTR1COMMON
C:\PROGRAM FILES (X86)\MICROSOFT VISUAL STUDIO 14.0\VC\INCLUDE\CSTDLIB
C:\PROGRAM FILES (X86)\WINDOWS KITS\10\INCLUDE\10.0.10240.0\UCRT\STDLIB.H
C:\PROGRAM FILES (X86)\WINDOWS KITS\10\INCLUDE\10.0.10240.0\UCRT\CORECRT_MALLOC.H
C:\PROGRAM FILES (X86)\WINDOWS KITS\10\INCLUDE\10.0.10240.0\UCRT\CORECRT_SEARCH.H
C:\PROGRAM FILES (X86)\WINDOWS KITS\10\INCLUDE\10.0.10240.0\UCRT\STDDEF.H
C:\PROGRAM FILES (X86)\WINDOWS KITS\10\INCLUDE\10.0.10240.0\UCRT\CORECRT_WSTDLIB.H
C:\PROGRAM FILES (X86)\MICROSOFT VISUAL STUDIO 14.0\VC\INCLUDE\CSTDIO
C:\PROGRAM FILES (X86)\WINDOWS KITS\10\INCLUDE\10.0.10240.0\UCRT\STDIO.H
C:\PROGRAM FILES (X86)\WINDOWS KITS\10\INCLUDE\10.0.10240.0\UCRT\CORECRT_WSTDIO.H
C:\PROGRAM FILES (X86)\WINDOWS KITS\10\INCLUDE\10.0.10240.0\UCRT\CORECRT_STDIO_CONFIG.H
C:\PROGRAM FILES (X86)\MICROSOFT VISUAL STUDIO 14.0\VC\INCLUDE\STREAMBUF
C:\PROGRAM FILES (X86)\MICROSOFT VISUAL STUDIO 14.0\VC\INCLUDE\XIOSBASE
C:\PROGRAM FILES (X86)\MICROSOFT VISUAL STUDIO 14.0\VC\INCLUDE\XLOCALE
C:\PROGRAM FILES (X86)\MICROSOFT VISUAL STUDIO 14.0\VC\INCLUDE\CSTRING
C:\PROGRAM FILES (X86)\WINDOWS KITS\10\INCLUDE\10.0.10240.0\UCRT\STRING.H
C:\PROGRAM FILES (X86)\WINDOWS KITS\10\INCLUDE\10.0.10240.0\UCRT\CORECRT_MEMORY.H
C:\PROGRAM FILES (X86)\WINDOWS KITS\10\INCLUDE\10.0.10240.0\UCRT\CORECRT_MEMCPY_S.H
C:\PROGRAM FILES (X86)\WINDOWS KITS\10\INCLUDE\10.0.10240.0\UCRT\ERRNO.H
C:\PROGRAM FILES (X86)\MICROSOFT VISUAL STUDIO 14.0\VC\INCLUDE\VCRUNTIME_STRING.H
C:\PROGRAM FILES (X86)\WINDOWS KITS\10\INCLUDE\10.0.10240.0\UCRT\CORECRT_WSTRING.H
C:\PROGRAM FILES (X86)\MICROSOFT VISUAL STUDIO 14.0\VC\INCLUDE\STDEXCEPT
C:\PROGRAM FILES (X86)\MICROSOFT VISUAL STUDIO 14.0\VC\INCLUDE\EXCEPTION
C:\PROGRAM FILES (X86)\MICROSOFT VISUAL STUDIO 14.0\VC\INCLUDE\TYPE_TRAITS
C:\PROGRAM FILES (X86)\MICROSOFT VISUAL STUDIO 14.0\VC\INCLUDE\XSTDDEF
C:\PROGRAM FILES (X86)\MICROSOFT VISUAL STUDIO 14.0\VC\INCLUDE\CSTDDEF
C:\PROGRAM FILES (X86)\MICROSOFT VISUAL STUDIO 14.0\VC\INCLUDE\INITIALIZER_LIST
C:\PROGRAM FILES (X86)\WINDOWS KITS\10\INCLUDE\10.0.10240.0\UCRT\MALLOC.H
C:\PROGRAM FILES (X86)\MICROSOFT VISUAL STUDIO 14.0\VC\INCLUDE\VCRUNTIME_EXCEPTION.H
C:\PROGRAM FILES (X86)\MICROSOFT VISUAL STUDIO 14.0\VC\INCLUDE\EH.H
C:\PROGRAM FILES (X86)\WINDOWS KITS\10\INCLUDE\10.0.10240.0\UCRT\CORECRT_TERMINATE.H
C:\PROGRAM FILES (X86)\MICROSOFT VISUAL STUDIO 14.0\VC\INCLUDE\XSTRING
C:\PROGRAM FILES (X86)\MICROSOFT VISUAL STUDIO 14.0\VC\INCLUDE\XMEMORY0
C:\PROGRAM FILES (X86)\MICROSOFT VISUAL STUDIO 14.0\VC\INCLUDE\CSTDINT
C:\PROGRAM FILES (X86)\MICROSOFT VISUAL STUDIO 14.0\VC\INCLUDE\STDINT.H
C:\PROGRAM FILES (X86)\MICROSOFT VISUAL STUDIO 14.0\VC\INCLUDE\LIMITS
C:\PROGRAM FILES (X86)\MICROSOFT VISUAL STUDIO 14.0\VC\INCLUDE\YMATH.H
C:\PROGRAM FILES (X86)\MICROSOFT VISUAL STUDIO 14.0\VC\INCLUDE\CFLOAT
C:\PROGRAM FILES (X86)\WINDOWS KITS\10\INCLUDE\10.0.10240.0\UCRT\FLOAT.H
C:\PROGRAM FILES (X86)\MICROSOFT VISUAL STUDIO 14.0\VC\INCLUDE\CWCHAR
C:\PROGRAM FILES (X86)\WINDOWS KITS\10\INCLUDE\10.0.10240.0\UCRT\WCHAR.H
C:\PROGRAM FILES (X86)\WINDOWS KITS\10\INCLUDE\10.0.10240.0\UCRT\CORECRT_WCONIO.H
C:\PROGRAM FILES (X86)\WINDOWS KITS\10\INCLUDE\10.0.10240.0\UCRT\CORECRT_WCTYPE.H
C:\PROGRAM FILES (X86)\WINDOWS KITS\10\INCLUDE\10.0.10240.0\UCRT\CORECRT_WDIRECT.H
C:\PROGRAM FILES (X86)\WINDOWS KITS\10\INCLUDE\10.0.10240.0\UCRT\CORECRT_WIO.H
C:\PROGRAM FILES (X86)\WINDOWS KITS\10\INCLUDE\10.0.10240.0\UCRT\CORECRT_SHARE.H
C:\PROGRAM FILES (X86)\WINDOWS KITS\10\INCLUDE\10.0.10240.0\UCRT\CORECRT_WPROCESS.H
C:\PROGRAM FILES (X86)\WINDOWS KITS\10\INCLUDE\10.0.10240.0\UCRT\CORECRT_WTIME.H
C:\PROGRAM FILES (X86)\WINDOWS KITS\10\INCLUDE\10.0.10240.0\UCRT\SYS\STAT.H
C:\PROGRAM FILES (X86)\WINDOWS KITS\10\INCLUDE\10.0.10240.0\UCRT\SYS\TYPES.H
C:\PROGRAM FILES (X86)\MICROSOFT VISUAL STUDIO 14.0\VC\INCLUDE\NEW
C:\PROGRAM FILES (X86)\MICROSOFT VISUAL STUDIO 14.0\VC\INCLUDE\VCRUNTIME_NEW.H
C:\PROGRAM FILES (X86)\MICROSOFT VISUAL STUDIO 14.0\VC\INCLUDE\XUTILITY
C:\PROGRAM FILES (X86)\MICROSOFT VISUAL STUDIO 14.0\VC\INCLUDE\UTILITY
C:\PROGRAM FILES (X86)\MICROSOFT VISUAL STUDIO 14.0\VC\INCLUDE\IOSFWD
C:\PROGRAM FILES (X86)\WINDOWS KITS\10\INCLUDE\10.0.10240.0\UCRT\CRTDBG.H
C:\PROGRAM FILES (X86)\MICROSOFT VISUAL STUDIO 14.0\VC\INCLUDE\VCRUNTIME_NEW_DEBUG.H
C:\PROGRAM FILES (X86)\MICROSOFT VISUAL STUDIO 14.0\VC\INCLUDE\XATOMIC0.H
C:\PROGRAM FILES (X86)\MICROSOFT VISUAL STUDIO 14.0\VC\INCLUDE\INTRIN.H
C:\PROGRAM FILES (X86)\MICROSOFT VISUAL STUDIO 14.0\VC\INCLUDE\SETJMP.H
C:\PROGRAM FILES (X86)\MICROSOFT VISUAL STUDIO 14.0\VC\INCLUDE\IMMINTRIN.H
C:\PROGRAM FILES (X86)\MICROSOFT VISUAL STUDIO 14.0\VC\INCLUDE\WMMINTRIN.H
C:\PROGRAM FILES (X86)\MICROSOFT VISUAL STUDIO 14.0\VC\INCLUDE\NMMINTRIN.H
C:\PROGRAM FILES (X86)\MICROSOFT VISUAL STUDIO 14.0\VC\INCLUDE\SMMINTRIN.H
C:\PROGRAM FILES (X86)\MICROSOFT VISUAL STUDIO 14.0\VC\INCLUDE\TMMINTRIN.H
C:\PROGRAM FILES (X86)\MICROSOFT VISUAL STUDIO 14.0\VC\INCLUDE\PMMINTRIN.H
C:\PROGRAM FILES (X86)\MICROSOFT VISUAL STUDIO 14.0\VC\INCLUDE\EMMINTRIN.H
C:\PROGRAM FILES (X86)\MICROSOFT VISUAL STUDIO 14.0\VC\INCLUDE\XMMINTRIN.H
C:\PROGRAM FILES (X86)\MICROSOFT VISUAL STUDIO 14.0\VC\INCLUDE\MMINTRIN.H
C:\PROGRAM FILES (X86)\MICROSOFT VISUAL STUDIO 14.0\VC\INCLUDE\AMMINTRIN.H
C:\PROGRAM FILES (X86)\MICROSOFT VISUAL STUDIO 14.0\VC\INCLUDE\TYPEINFO
C:\PROGRAM FILES (X86)\MICROSOFT VISUAL STUDIO 14.0\VC\INCLUDE\VCRUNTIME_TYPEINFO.H
C:\PROGRAM FILES (X86)\MICROSOFT VISUAL STUDIO 14.0\VC\INCLUDE\XLOCINFO
C:\PROGRAM FILES (X86)\MICROSOFT VISUAL STUDIO 14.0\VC\INCLUDE\XLOCINFO.H
C:\PROGRAM FILES (X86)\WINDOWS KITS\10\INCLUDE\10.0.10240.0\UCRT\CTYPE.H
C:\PROGRAM FILES (X86)\WINDOWS KITS\10\INCLUDE\10.0.10240.0\UCRT\LOCALE.H
C:\PROGRAM FILES (X86)\MICROSOFT VISUAL STUDIO 14.0\VC\INCLUDE\XFACET
C:\PROGRAM FILES (X86)\MICROSOFT VISUAL STUDIO 14.0\VC\INCLUDE\SYSTEM_ERROR
C:\PROGRAM FILES (X86)\MICROSOFT VISUAL STUDIO 14.0\VC\INCLUDE\CERRNO
C:\PROGRAM FILES (X86)\WINDOWS KITS\10\INCLUDE\10.0.10240.0\UCRT\SHARE.H
C:\PROGRAM FILES (X86)\MICROSOFT VISUAL STUDIO 14.0\VC\INCLUDE\SSTREAM
C:\PROGRAM FILES (X86)\MICROSOFT VISUAL STUDIO 14.0\VC\INCLUDE\VECTOR
C:\PROGRAM FILES (X86)\MICROSOFT VISUAL STUDIO 14.0\VC\INCLUDE\XMEMORY
C:\PROGRAM FILES (X86)\MICROSOFT VISUAL STUDIO 14.0\VC\INCLUDE\FSTREAM
C:\PROGRAM FILES (X86)\MICROSOFT VISUAL STUDIO 14.0\VC\INCLUDE\MAP
C:\PROGRAM FILES (X86)\MICROSOFT VISUAL STUDIO 14.0\VC\INCLUDE\TUPLE
C:\PROGRAM FILES (X86)\MICROSOFT VISUAL STUDIO 14.0\VC\INCLUDE\XTREE
H:\CONSOLEAPPLICATION2\INCLUDE\GLM\GLM.HPP
H:\CONSOLEAPPLICATION2\INCLUDE\GLM\DETAIL\_FIXES.HPP
C:\PROGRAM FILES (X86)\MICROSOFT VISUAL STUDIO 14.0\VC\INCLUDE\CASSERT
C:\PROGRAM FILES (X86)\WINDOWS KITS\10\INCLUDE\10.0.10240.0\UCRT\ASSERT.H
H:\CONSOLEAPPLICATION2\INCLUDE\GLM\FWD.HPP
H:\CONSOLEAPPLICATION2\INCLUDE\GLM\DETAIL\TYPE_INT.HPP
H:\CONSOLEAPPLICATION2\INCLUDE\GLM\DETAIL\SETUP.HPP
H:\CONSOLEAPPLICATION2\INCLUDE\GLM\DETAIL\TYPE_FLOAT.HPP
H:\CONSOLEAPPLICATION2\INCLUDE\GLM\DETAIL\TYPE_VEC.HPP
H:\CONSOLEAPPLICATION2\INCLUDE\GLM\DETAIL\PRECISION.HPP
H:\CONSOLEAPPLICATION2\INCLUDE\GLM\DETAIL\TYPE_MAT.HPP
H:\CONSOLEAPPLICATION2\INCLUDE\GLM\VEC2.HPP
H:\CONSOLEAPPLICATION2\INCLUDE\GLM\DETAIL\TYPE_VEC2.HPP
H:\CONSOLEAPPLICATION2\INCLUDE\GLM\DETAIL\TYPE_VEC2.INL
H:\CONSOLEAPPLICATION2\INCLUDE\GLM\VEC3.HPP
H:\CONSOLEAPPLICATION2\INCLUDE\GLM\DETAIL\TYPE_VEC3.HPP
H:\CONSOLEAPPLICATION2\INCLUDE\GLM\DETAIL\TYPE_VEC3.INL
H:\CONSOLEAPPLICATION2\INCLUDE\GLM\VEC4.HPP
H:\CONSOLEAPPLICATION2\INCLUDE\GLM\DETAIL\TYPE_VEC4.HPP
H:\CONSOLEAPPLICATION2\INCLUDE\GLM\DETAIL\TYPE_VEC4.INL
H:\CONSOLEAPPLICATION2\INCLUDE\GLM\MAT2X2.HPP
H:\CONSOLEAPPLICATION2\INCLUDE\GLM\DETAIL\TYPE_MAT2X2.HPP
H:\CONSOLEAPPLICATION2\INCLUDE\GLM\DETAIL\TYPE_MAT2X2.INL
H:\CONSOLEAPPLICATION2\INCLUDE\GLM\MAT2X3.HPP
H:\CONSOLEAPPLICATION2\INCLUDE\GLM\DETAIL\TYPE_MAT2X3.HPP
H:\CONSOLEAPPLICATION2\INCLUDE\GLM\DETAIL\TYPE_MAT2X3.INL
H:\CONSOLEAPPLICATION2\INCLUDE\GLM\MAT2X4.HPP
H:\CONSOLEAPPLICATION2\INCLUDE\GLM\DETAIL\TYPE_MAT2X4.HPP
H:\CONSOLEAPPLICATION2\INCLUDE\GLM\DETAIL\TYPE_MAT2X4.INL
H:\CONSOLEAPPLICATION2\INCLUDE\GLM\MAT3X2.HPP
H:\CONSOLEAPPLICATION2\INCLUDE\GLM\DETAIL\TYPE_MAT3X2.HPP
H:\CONSOLEAPPLICATION2\INCLUDE\GLM\DETAIL\TYPE_MAT3X2.INL
H:\CONSOLEAPPLICATION2\INCLUDE\GLM\MAT3X3.HPP
H:\CONSOLEAPPLICATION2\INCLUDE\GLM\DETAIL\TYPE_MAT3X3.HPP
H:\CONSOLEAPPLICATION2\INCLUDE\GLM\DETAIL\TYPE_MAT3X3.INL
H:\CONSOLEAPPLICATION2\INCLUDE\GLM\MAT3X4.HPP
H:\CONSOLEAPPLICATION2\INCLUDE\GLM\DETAIL\TYPE_MAT3X4.HPP
H:\CONSOLEAPPLICATION2\INCLUDE\GLM\DETAIL\TYPE_MAT3X4.INL
H:\CONSOLEAPPLICATION2\INCLUDE\GLM\MAT4X2.HPP
H:\CONSOLEAPPLICATION2\INCLUDE\GLM\DETAIL\TYPE_MAT4X2.HPP
H:\CONSOLEAPPLICATION2\INCLUDE\GLM\DETAIL\TYPE_MAT4X2.INL
H:\CONSOLEAPPLICATION2\INCLUDE\GLM\MAT4X3.HPP
H:\CONSOLEAPPLICATION2\INCLUDE\GLM\DETAIL\TYPE_MAT4X3.HPP
H:\CONSOLEAPPLICATION2\INCLUDE\GLM\DETAIL\TYPE_MAT4X3.INL
H:\CONSOLEAPPLICATION2\INCLUDE\GLM\MAT4X4.HPP
H:\CONSOLEAPPLICATION2\INCLUDE\GLM\DETAIL\TYPE_MAT4X4.HPP
H:\CONSOLEAPPLICATION2\INCLUDE\GLM\DETAIL\TYPE_MAT4X4.INL
H:\CONSOLEAPPLICATION2\INCLUDE\GLM\TRIGONOMETRIC.HPP
H:\CONSOLEAPPLICATION2\INCLUDE\GLM\DETAIL\FUNC_TRIGONOMETRIC.HPP
H:\CONSOLEAPPLICATION2\INCLUDE\GLM\DETAIL\FUNC_TRIGONOMETRIC.INL
H:\CONSOLEAPPLICATION2\INCLUDE\GLM\DETAIL\_VECTORIZE.HPP
H:\CONSOLEAPPLICATION2\INCLUDE\GLM\DETAIL\TYPE_VEC1.HPP
H:\CONSOLEAPPLICATION2\INCLUDE\GLM\DETAIL\TYPE_VEC1.INL
H:\CONSOLEAPPLICATION2\INCLUDE\GLM\EXPONENTIAL.HPP
H:\CONSOLEAPPLICATION2\INCLUDE\GLM\DETAIL\FUNC_EXPONENTIAL.HPP
H:\CONSOLEAPPLICATION2\INCLUDE\GLM\DETAIL\FUNC_EXPONENTIAL.INL
H:\CONSOLEAPPLICATION2\INCLUDE\GLM\DETAIL\FUNC_VECTOR_RELATIONAL.HPP
H:\CONSOLEAPPLICATION2\INCLUDE\GLM\DETAIL\FUNC_VECTOR_RELATIONAL.INL
H:\CONSOLEAPPLICATION2\INCLUDE\GLM\COMMON.HPP
H:\CONSOLEAPPLICATION2\INCLUDE\GLM\DETAIL\FUNC_COMMON.HPP
H:\CONSOLEAPPLICATION2\INCLUDE\GLM\DETAIL\FUNC_COMMON.INL
H:\CONSOLEAPPLICATION2\INCLUDE\GLM\PACKING.HPP
H:\CONSOLEAPPLICATION2\INCLUDE\GLM\DETAIL\FUNC_PACKING.HPP
H:\CONSOLEAPPLICATION2\INCLUDE\GLM\DETAIL\FUNC_PACKING.INL
H:\CONSOLEAPPLICATION2\INCLUDE\GLM\DETAIL\TYPE_HALF.HPP
H:\CONSOLEAPPLICATION2\INCLUDE\GLM\DETAIL\TYPE_HALF.INL
H:\CONSOLEAPPLICATION2\INCLUDE\GLM\GEOMETRIC.HPP
H:\CONSOLEAPPLICATION2\INCLUDE\GLM\DETAIL\FUNC_GEOMETRIC.HPP
H:\CONSOLEAPPLICATION2\INCLUDE\GLM\DETAIL\FUNC_GEOMETRIC.INL
H:\CONSOLEAPPLICATION2\INCLUDE\GLM\MATRIX.HPP
H:\CONSOLEAPPLICATION2\INCLUDE\GLM\DETAIL\FUNC_MATRIX.HPP
H:\CONSOLEAPPLICATION2\INCLUDE\GLM\DETAIL\FUNC_MATRIX.INL
H:\CONSOLEAPPLICATION2\INCLUDE\GLM\VECTOR_RELATIONAL.HPP
H:\CONSOLEAPPLICATION2\INCLUDE\GLM\INTEGER.HPP
H:\CONSOLEAPPLICATION2\INCLUDE\GLM\DETAIL\FUNC_INTEGER.HPP
H:\CONSOLEAPPLICATION2\INCLUDE\GLM\DETAIL\FUNC_INTEGER.INL
H:\CONSOLEAPPLICATION2\INCLUDE\GLM\GTC\QUATERNION.HPP
H:\CONSOLEAPPLICATION2\INCLUDE\GLM\GTC\CONSTANTS.HPP
H:\CONSOLEAPPLICATION2\INCLUDE\GLM\GTC\CONSTANTS.INL
H:\CONSOLEAPPLICATION2\INCLUDE\GLM\GTC\QUATERNION.INL
H:\CONSOLEAPPLICATION2\INCLUDE\GLM\GTX\QUATERNION.HPP
H:\CONSOLEAPPLICATION2\INCLUDE\GLM\GTX\NORM.HPP
H:\CONSOLEAPPLICATION2\INCLUDE\GLM\GTX\NORM.INL
H:\CONSOLEAPPLICATION2\INCLUDE\GLM\GTX\QUATERNION.INL
H:\CONSOLEAPPLICATION2\INCLUDE\GLM\GTX\TRANSFORM.HPP
H:\CONSOLEAPPLICATION2\INCLUDE\GLM\GTC\MATRIX_TRANSFORM.HPP
H:\CONSOLEAPPLICATION2\INCLUDE\GLM\GTC\MATRIX_TRANSFORM.INL
H:\CONSOLEAPPLICATION2\INCLUDE\GLM\GTX\TRANSFORM.INL
