^C:\USERS\MATEUSZ\DOCUMENTS\BITBUCKET\GAMEENGINE V2.0\CONSOLEAPPLICATION2\CAMERAOPERATOR.CPP
/c /I"C:\USERS\MATEUSZ\DOCUMENTS\BITBUCKET\GAMEENGINE V2.0\PACKAGES\PUGIXML.1.7.2\BUILD\NATIVE\../..//BUILD/NATIVE/INCLUDE/" /ZI /nologo /W3 /WX- /sdl /Od /D WIN32 /D _DEBUG /D _CONSOLE /D _LIB /D _UNICODE /D UNICODE /Gm /EHsc /RTC1 /MDd /GS /fp:precise /Zc:wchar_t /Zc:forScope /Zc:inline /Fo"X64\DEBUG\\" /Fd"X64\DEBUG\VC140.PDB" /Gd /TP C:\USERS\MATEUSZ\DOCUMENTS\BITBUCKET\GAMEENGINE V2.0\CONSOLEAPPLICATION2\CAMERAOPERATOR.CPP
^C:\USERS\MATEUSZ\DOCUMENTS\BITBUCKET\GAMEENGINE V2.0\CONSOLEAPPLICATION2\INFODISPLAY.CPP
/c /I"C:\USERS\MATEUSZ\DOCUMENTS\BITBUCKET\GAMEENGINE V2.0\PACKAGES\PUGIXML.1.7.2\BUILD\NATIVE\../..//BUILD/NATIVE/INCLUDE/" /ZI /nologo /W3 /WX- /sdl /Od /D WIN32 /D _DEBUG /D _CONSOLE /D _LIB /D _UNICODE /D UNICODE /Gm /EHsc /RTC1 /MDd /GS /fp:precise /Zc:wchar_t /Zc:forScope /Zc:inline /Fo"X64\DEBUG\\" /Fd"X64\DEBUG\VC140.PDB" /Gd /TP C:\USERS\MATEUSZ\DOCUMENTS\BITBUCKET\GAMEENGINE V2.0\CONSOLEAPPLICATION2\INFODISPLAY.CPP
^C:\USERS\MATEUSZ\DOCUMENTS\BITBUCKET\GAMEENGINE V2.0\CONSOLEAPPLICATION2\SOURCE.CPP
/c /I"C:\USERS\MATEUSZ\DOCUMENTS\BITBUCKET\GAMEENGINE V2.0\PACKAGES\PUGIXML.1.7.2\BUILD\NATIVE\../..//BUILD/NATIVE/INCLUDE/" /ZI /nologo /W3 /WX- /sdl /Od /D WIN32 /D _DEBUG /D _CONSOLE /D _LIB /D _UNICODE /D UNICODE /Gm /EHsc /RTC1 /MDd /GS /fp:precise /Zc:wchar_t /Zc:forScope /Zc:inline /Fo"X64\DEBUG\\" /Fd"X64\DEBUG\VC140.PDB" /Gd /TP C:\USERS\MATEUSZ\DOCUMENTS\BITBUCKET\GAMEENGINE V2.0\CONSOLEAPPLICATION2\SOURCE.CPP
