^C:\USERS\MATEUSZ\DOCUMENTS\BITBUCKET\GAMEENGINE V2.0\SHADERS\X64\DEBUG\SHADER.OBJ|C:\USERS\MATEUSZ\DOCUMENTS\BITBUCKET\GAMEENGINE V2.0\SHADERS\X64\DEBUG\SHADERCONTAINER.OBJ|C:\USERS\MATEUSZ\DOCUMENTS\BITBUCKET\GAMEENGINE V2.0\SHADERS\X64\DEBUG\SHADERPARSER.OBJ
C:\WINDOWS\GLOBALIZATION\SORTING\SORTDEFAULT.NLS
C:\USERS\MATEUSZ\DOCUMENTS\BITBUCKET\GAMEENGINE V2.0\SHADERS\X64\DEBUG\SHADER.OBJ
C:\WINDOWS\SYSTEM32\TZRES.DLL
C:\USERS\MATEUSZ\DOCUMENTS\BITBUCKET\GAMEENGINE V2.0\SHADERS\X64\DEBUG\SHADERCONTAINER.OBJ
C:\USERS\MATEUSZ\DOCUMENTS\BITBUCKET\GAMEENGINE V2.0\SHADERS\X64\DEBUG\SHADERPARSER.OBJ
