^C:\USERS\MATEUSZ\DOCUMENTS\BITBUCKET\GAMEENGINE V2.0\PRIMITIVES\X64\DEBUG\FACE.OBJ|C:\USERS\MATEUSZ\DOCUMENTS\BITBUCKET\GAMEENGINE V2.0\PRIMITIVES\X64\DEBUG\MATERIAL.OBJ|C:\USERS\MATEUSZ\DOCUMENTS\BITBUCKET\GAMEENGINE V2.0\PRIMITIVES\X64\DEBUG\MATERIALCONTAINER.OBJ|C:\USERS\MATEUSZ\DOCUMENTS\BITBUCKET\GAMEENGINE V2.0\PRIMITIVES\X64\DEBUG\MESH.OBJ|C:\USERS\MATEUSZ\DOCUMENTS\BITBUCKET\GAMEENGINE V2.0\PRIMITIVES\X64\DEBUG\MESHCONTAINER.OBJ|C:\USERS\MATEUSZ\DOCUMENTS\BITBUCKET\GAMEENGINE V2.0\PRIMITIVES\X64\DEBUG\MESHLOADER.OBJ|C:\USERS\MATEUSZ\DOCUMENTS\BITBUCKET\GAMEENGINE V2.0\PRIMITIVES\X64\DEBUG\TEXTURE.OBJ|C:\USERS\MATEUSZ\DOCUMENTS\BITBUCKET\GAMEENGINE V2.0\PRIMITIVES\X64\DEBUG\TEXTURECOUNTAINER.OBJ|C:\USERS\MATEUSZ\DOCUMENTS\BITBUCKET\GAMEENGINE V2.0\PRIMITIVES\X64\DEBUG\TRANSFORM.OBJ
C:\WINDOWS\GLOBALIZATION\SORTING\SORTDEFAULT.NLS
C:\USERS\MATEUSZ\DOCUMENTS\BITBUCKET\GAMEENGINE V2.0\PRIMITIVES\X64\DEBUG\FACE.OBJ
C:\WINDOWS\SYSTEM32\TZRES.DLL
C:\USERS\MATEUSZ\DOCUMENTS\BITBUCKET\GAMEENGINE V2.0\PRIMITIVES\X64\DEBUG\MATERIAL.OBJ
C:\USERS\MATEUSZ\DOCUMENTS\BITBUCKET\GAMEENGINE V2.0\PRIMITIVES\X64\DEBUG\MATERIALCONTAINER.OBJ
C:\USERS\MATEUSZ\DOCUMENTS\BITBUCKET\GAMEENGINE V2.0\PRIMITIVES\X64\DEBUG\MESH.OBJ
C:\USERS\MATEUSZ\DOCUMENTS\BITBUCKET\GAMEENGINE V2.0\PRIMITIVES\X64\DEBUG\MESHCONTAINER.OBJ
C:\USERS\MATEUSZ\DOCUMENTS\BITBUCKET\GAMEENGINE V2.0\PRIMITIVES\X64\DEBUG\MESHLOADER.OBJ
C:\USERS\MATEUSZ\DOCUMENTS\BITBUCKET\GAMEENGINE V2.0\PRIMITIVES\X64\DEBUG\TEXTURE.OBJ
C:\USERS\MATEUSZ\DOCUMENTS\BITBUCKET\GAMEENGINE V2.0\PRIMITIVES\X64\DEBUG\TEXTURECOUNTAINER.OBJ
C:\USERS\MATEUSZ\DOCUMENTS\BITBUCKET\GAMEENGINE V2.0\PRIMITIVES\X64\DEBUG\TRANSFORM.OBJ
